^C:\USERS\DESMO\SOURCE\REPOS\SUPERPROJECT\X64\DEBUG\HELPERS.OBJ|C:\USERS\DESMO\SOURCE\REPOS\SUPERPROJECT\X64\DEBUG\MAIN.OBJ|C:\USERS\DESMO\SOURCE\REPOS\SUPERPROJECT\X64\DEBUG\MATH.OBJ
C:\USERS\DESMO\SOURCE\REPOS\SUPERPROJECT\X64\DEBUG\SUPERPROJECT.EXE
C:\USERS\DESMO\SOURCE\REPOS\SUPERPROJECT\X64\DEBUG\SUPERPROJECT.ILK
C:\USERS\DESMO\SOURCE\REPOS\SUPERPROJECT\X64\DEBUG\SUPERPROJECT.PDB
